<svg width="21" height="20" viewBox="0 0 21 20" fill="none" xmlns="http://www.w3.org/2000/svg">
<path d="M19.75 18.25H1V4.75L5.5 1H10.375H15.25L19.75 4.75V18.25Z" stroke="#4E84F9" stroke-width="2"/>
</svg>
